{
	"info": {
		"_postman_id": "0231ce55-38d5-421a-8630-3a48850cf159",
		"name": "mopidy",
		"schema": "https://schema.getpostman.com/json/collection/v2.1.0/collection.json"
	},
	"item": [
		{
			"name": "Play",
			"request": {
				"method": "POST",
				"header": [
					{
						"key": "Content-Type",
						"value": "application/json"
					}
				],
				"body": {
					"mode": "raw",
					"raw": "{\n\t\"jsonrpc\": \"2.0\",\n\t\"id\": 1,\n\t\"method\": \"core.playback.play\"\n}"
				},
				"url": {
					"raw": "{{baseUrl}}:6680/mopidy/rpc",
					"host": [
						"{{baseUrl}}"
					],
					"port": "6680",
					"path": [
						"mopidy",
						"rpc"
					]
				}
			},
			"response": []
		},
		{
			"name": "Pause",
			"request": {
				"method": "POST",
				"header": [
					{
						"key": "Content-Type",
						"value": "application/json"
					}
				],
				"body": {
					"mode": "raw",
					"raw": "{\n\t\"jsonrpc\": \"2.0\",\n\t\"id\": 1,\n\t\"method\": \"core.playback.pause\"\n}"
				},
				"url": {
					"raw": "{{baseUrl}}:6680/mopidy/rpc",
					"host": [
						"{{baseUrl}}"
					],
					"port": "6680",
					"path": [
						"mopidy",
						"rpc"
					]
				}
			},
			"response": []
		},
		{
			"name": "Clear Tracklist",
			"request": {
				"method": "POST",
				"header": [
					{
						"key": "Content-Type",
						"value": "application/json"
					}
				],
				"body": {
					"mode": "raw",
					"raw": "{\n\t\"jsonrpc\": \"2.0\",\n\t\"id\": 1,\n\t\"method\": \"core.tracklist.clear\"\n}"
				},
				"url": {
					"raw": "{{baseUrl}}:6680/mopidy/rpc",
					"host": [
						"{{baseUrl}}"
					],
					"port": "6680",
					"path": [
						"mopidy",
						"rpc"
					]
				}
			},
			"response": []
		},
		{
			"name": "Add Track",
			"request": {
				"method": "POST",
				"header": [
					{
						"key": "Content-Type",
						"value": "application/json"
					}
				],
				"body": {
					"mode": "raw",
					"raw": "{\n\t\"jsonrpc\": \"2.0\",\n\t\"id\": 1,\n\t\"method\": \"core.tracklist.add\",\n\t\"params\": {\"uris\": [\"spotify:playlist:37i9dQZF1DX3bH0P2uDnWA\"]}\n}"
				},
				"url": {
					"raw": "{{baseUrl}}:6680/mopidy/rpc",
					"host": [
						"{{baseUrl}}"
					],
					"port": "6680",
					"path": [
						"mopidy",
						"rpc"
					]
				}
			},
			"response": []
		},
		{
			"name": "Add Track (mp3)",
			"request": {
				"method": "POST",
				"header": [],
				"body": {
					"mode": "raw",
					"raw": "{\r\n\t\"jsonrpc\": \"2.0\",\r\n\t\"id\": 1,\r\n\t\"method\": \"core.tracklist.add\",\r\n\t\"params\": {\"uris\": [\"file:/home/rfidmusic/my-magic-cards/mopidy/music/beep_down.mp3\"]}\r\n}",
					"options": {
						"raw": {
							"language": "json"
						}
					}
				},
				"url": {
					"raw": "{{baseUrl}}:6680/mopidy/rpc",
					"host": [
						"{{baseUrl}}"
					],
					"port": "6680",
					"path": [
						"mopidy",
						"rpc"
					]
				}
			},
			"response": []
		},
		{
			"name": "Set Volume",
			"request": {
				"method": "POST",
				"header": [
					{
						"key": "Content-Type",
						"value": "application/json"
					}
				],
				"body": {
					"mode": "raw",
					"raw": "{\n\t\"jsonrpc\": \"2.0\",\n\t\"id\": 1,\n\t\"method\": \"core.mixer.set_volume\",\n\t\"params\": {\"volume\": 100}\n}"
				},
				"url": {
					"raw": "{{baseUrl}}:6680/mopidy/rpc",
					"host": [
						"{{baseUrl}}"
					],
					"port": "6680",
					"path": [
						"mopidy",
						"rpc"
					]
				}
			},
			"response": []
		},
		{
			"name": "Get Tracklist",
			"request": {
				"method": "POST",
				"header": [
					{
						"key": "Content-Type",
						"value": "application/json"
					}
				],
				"body": {
					"mode": "raw",
					"raw": "{\n\t\"jsonrpc\": \"2.0\",\n\t\"id\": 1,\n\t\"method\": \"core.tracklist.get_tracks\"\n}"
				},
				"url": {
					"raw": "{{baseUrl}}:6680/mopidy/rpc",
					"host": [
						"{{baseUrl}}"
					],
					"port": "6680",
					"path": [
						"mopidy",
						"rpc"
					]
				}
			},
			"response": []
		}
	],
	"protocolProfileBehavior": {}
}